\relax 
\@writefile{toc}{\contentsline {section}{\numberline {1}Steps taken so far}{1}}
\@writefile{toc}{\contentsline {section}{\numberline {2}Scripts}{1}}
\@writefile{toc}{\contentsline {subsection}{\numberline {2.1}eis2mat.m}{1}}
\@writefile{toc}{\contentsline {subsection}{\numberline {2.2}rOS\_freeview}{1}}
\@writefile{toc}{\contentsline {subsection}{\numberline {2.3}bi\_eyemovement\_agg.m}{1}}
\@writefile{toc}{\contentsline {subsection}{\numberline {2.4}threeDplot.m}{1}}
\@writefile{toc}{\contentsline {section}{\numberline {3}Monocular Analysis Figures}{2}}
\@writefile{lof}{\contentsline {figure}{\numberline {1}{\ignorespaces Saccades across all 26 trials. Trials were typically \nobreakspace  {}6 seconds in length.\relax }}{2}}
\providecommand*\caption@xref[2]{\@setref\relax\@undefined{#1}}
\newlabel{fig:saccades}{{1}{2}}
\newlabel{fig:drift1}{{2a}{3}}
\newlabel{sub@fig:drift1}{{a}{3}}
\newlabel{fig:drift2}{{2b}{3}}
\newlabel{sub@fig:drift2}{{b}{3}}
\newlabel{fig:driftverg1}{{2c}{3}}
\newlabel{sub@fig:driftverg1}{{c}{3}}
\newlabel{fig:driftverg2}{{2d}{3}}
\newlabel{sub@fig:driftverg2}{{d}{3}}
\newlabel{fig:diffusion1}{{2e}{3}}
\newlabel{sub@fig:diffusion1}{{e}{3}}
\newlabel{fig:diffusion2}{{2f}{3}}
\newlabel{sub@fig:diffusion2}{{f}{3}}
\@writefile{lof}{\contentsline {figure}{\numberline {2}{\ignorespaces Drift data across all 26 trials\relax }}{3}}
\@writefile{toc}{\contentsline {section}{\numberline {4}3D Plots}{4}}
\newlabel{fig:bgp1}{{3a}{5}}
\newlabel{sub@fig:bgp1}{{a}{5}}
\newlabel{fig:hv1}{{3b}{5}}
\newlabel{sub@fig:hv1}{{b}{5}}
\newlabel{fig:vs1}{{3c}{5}}
\newlabel{sub@fig:vs1}{{c}{5}}
\@writefile{lof}{\contentsline {figure}{\numberline {3}{\ignorespaces Trial 1 of 26 3d plots\relax }}{5}}
\newlabel{fig:imagetraceR1}{{4a}{6}}
\newlabel{sub@fig:imagetraceR1}{{a}{6}}
\newlabel{fig:imagetraceL1}{{4b}{6}}
\newlabel{sub@fig:imagetraceL1}{{b}{6}}
\@writefile{lof}{\contentsline {figure}{\numberline {4}{\ignorespaces Right/left eye gaze traces over their respective images\relax }}{6}}
\newlabel{fig:depthmapR1}{{5a}{7}}
\newlabel{sub@fig:depthmapR1}{{a}{7}}
\newlabel{fig:depthmapL1}{{5b}{7}}
\newlabel{sub@fig:depthmapL1}{{b}{7}}
\@writefile{lof}{\contentsline {figure}{\numberline {5}{\ignorespaces Right/left eye gaze traces over their respective depth maps\relax }}{7}}
\@writefile{lof}{\contentsline {figure}{\numberline {6}{\ignorespaces Vergence and scene depth during trial 1\relax }}{8}}
\newlabel{fig:vergdepth1}{{6}{8}}
\newlabel{fig:bgp5}{{7a}{9}}
\newlabel{sub@fig:bgp5}{{a}{9}}
\newlabel{fig:hv5}{{7b}{9}}
\newlabel{sub@fig:hv5}{{b}{9}}
\newlabel{fig:vs5}{{7c}{9}}
\newlabel{sub@fig:vs5}{{c}{9}}
\@writefile{lof}{\contentsline {figure}{\numberline {7}{\ignorespaces Trial 2 of 26 3d plots\relax }}{9}}
\newlabel{fig:imagetraceR2}{{8a}{10}}
\newlabel{sub@fig:imagetraceR2}{{a}{10}}
\newlabel{fig:imagetraceL2}{{8b}{10}}
\newlabel{sub@fig:imagetraceL2}{{b}{10}}
\@writefile{lof}{\contentsline {figure}{\numberline {8}{\ignorespaces Right/left eye gaze traces over their respective images\relax }}{10}}
\newlabel{fig:depthmapR2}{{9a}{11}}
\newlabel{sub@fig:depthmapR2}{{a}{11}}
\newlabel{fig:depthmapL2}{{9b}{11}}
\newlabel{sub@fig:depthmapL2}{{b}{11}}
\@writefile{lof}{\contentsline {figure}{\numberline {9}{\ignorespaces Right/left eye gaze traces over their respective depth maps\relax }}{11}}
\@writefile{lof}{\contentsline {figure}{\numberline {10}{\ignorespaces Vergence and scene depth during trial 2\relax }}{12}}
\newlabel{fig:vergdepth2}{{10}{12}}
\newlabel{fig:bgp17}{{11a}{13}}
\newlabel{sub@fig:bgp17}{{a}{13}}
\newlabel{fig:hv17}{{11b}{13}}
\newlabel{sub@fig:hv17}{{b}{13}}
\newlabel{fig:vs17}{{11c}{13}}
\newlabel{sub@fig:vs17}{{c}{13}}
\@writefile{lof}{\contentsline {figure}{\numberline {11}{\ignorespaces Trial 17 of 26 3d plots\relax }}{13}}
\newlabel{fig:imagetraceR17}{{12a}{14}}
\newlabel{sub@fig:imagetraceR17}{{a}{14}}
\newlabel{fig:imagetraceL17}{{12b}{14}}
\newlabel{sub@fig:imagetraceL17}{{b}{14}}
\@writefile{lof}{\contentsline {figure}{\numberline {12}{\ignorespaces Right/left eye gaze traces over their respective images\relax }}{14}}
\@writefile{lof}{\contentsline {figure}{\numberline {13}{\ignorespaces Vergence and scene depth during trial 17\relax }}{15}}
\newlabel{fig:vergdepth17}{{13}{15}}
\newlabel{fig:depthmap17}{{14a}{16}}
\newlabel{sub@fig:depthmap17}{{a}{16}}
\newlabel{fig:depthmapL17}{{14b}{16}}
\newlabel{sub@fig:depthmapL17}{{b}{16}}
\@writefile{lof}{\contentsline {figure}{\numberline {14}{\ignorespaces Right/left eye gaze traces over their respective depth maps\relax }}{16}}
\newlabel{fig:bgp26}{{15a}{17}}
\newlabel{sub@fig:bgp26}{{a}{17}}
\newlabel{fig:hv26}{{15b}{17}}
\newlabel{sub@fig:hv26}{{b}{17}}
\newlabel{fig:vs26}{{15c}{17}}
\newlabel{sub@fig:vs26}{{c}{17}}
\@writefile{lof}{\contentsline {figure}{\numberline {15}{\ignorespaces Trial 26 of 26 3d plots\relax }}{17}}
\newlabel{fig:imagetraceR26}{{16a}{18}}
\newlabel{sub@fig:imagetraceR26}{{a}{18}}
\newlabel{fig:imagetraceL26}{{16b}{18}}
\newlabel{sub@fig:imagetraceL26}{{b}{18}}
\@writefile{lof}{\contentsline {figure}{\numberline {16}{\ignorespaces Right/left eye gaze traces over their respective images\relax }}{18}}
\newlabel{fig:depthmapR26}{{17a}{19}}
\newlabel{sub@fig:depthmapR26}{{a}{19}}
\newlabel{fig:depthmapL26}{{17b}{19}}
\newlabel{sub@fig:depthmapL26}{{b}{19}}
\@writefile{lof}{\contentsline {figure}{\numberline {17}{\ignorespaces Right/left eye gaze traces over their respective depth maps\relax }}{19}}
\@writefile{lof}{\contentsline {figure}{\numberline {18}{\ignorespaces Vergence and scene depth during trial 26\relax }}{20}}
\newlabel{fig:vergdepth26}{{18}{20}}
\@writefile{toc}{\contentsline {section}{\numberline {5}Binocular Drift, Saccade, and Diffusion Analysis}{21}}
\@writefile{toc}{\contentsline {subsection}{\numberline {5.1}Drift Analysis}{21}}
\@writefile{lof}{\contentsline {figure}{\numberline {19}{\ignorespaces Drift duration (normalized to 1)\relax }}{21}}
\newlabel{fig:driftduration}{{19}{21}}
\newlabel{fig:driftpos1}{{20a}{22}}
\newlabel{sub@fig:driftpos1}{{a}{22}}
\newlabel{fig:driftpos2}{{20b}{22}}
\newlabel{sub@fig:driftpos2}{{b}{22}}
\@writefile{lof}{\contentsline {figure}{\numberline {20}{\ignorespaces Relative drift position. All drifts are centered at (0, 0) to start.\relax }}{22}}
\newlabel{fig:driftspeed1}{{21a}{23}}
\newlabel{sub@fig:driftspeed1}{{a}{23}}
\newlabel{fig:driftspeed2}{{21b}{23}}
\newlabel{sub@fig:driftspeed2}{{b}{23}}
\@writefile{lof}{\contentsline {figure}{\numberline {21}{\ignorespaces Drift speed distribution\relax }}{23}}
\@writefile{lof}{\contentsline {figure}{\numberline {22}{\ignorespaces drift speed correlation\relax }}{24}}
\newlabel{fig:speedcorr}{{22}{24}}
\newlabel{fig:velcorrx}{{23a}{25}}
\newlabel{sub@fig:velcorrx}{{a}{25}}
\newlabel{fig:velcorry}{{23b}{25}}
\newlabel{sub@fig:velcorry}{{b}{25}}
\@writefile{lof}{\contentsline {figure}{\numberline {23}{\ignorespaces Drift velocity component correlation\relax }}{25}}
\newlabel{fig:curv1}{{24a}{26}}
\newlabel{sub@fig:curv1}{{a}{26}}
\newlabel{fig:curv2}{{24b}{26}}
\newlabel{sub@fig:curv2}{{b}{26}}
\@writefile{lof}{\contentsline {figure}{\numberline {24}{\ignorespaces Drift curvature\relax }}{26}}
\newlabel{fig:vergx}{{25a}{27}}
\newlabel{sub@fig:vergx}{{a}{27}}
\newlabel{fig:vergy}{{25b}{27}}
\newlabel{sub@fig:vergy}{{b}{27}}
\@writefile{lof}{\contentsline {figure}{\numberline {25}{\ignorespaces Vergence\relax }}{27}}
\newlabel{fig:velocityvsxcorr}{{26a}{28}}
\newlabel{sub@fig:velocityvsxcorr}{{a}{28}}
\newlabel{fig:velocityvsycorr}{{26b}{28}}
\newlabel{sub@fig:velocityvsycorr}{{b}{28}}
\@writefile{lof}{\contentsline {figure}{\numberline {26}{\ignorespaces Correlation between version and vergence velocities\relax }}{28}}
\@writefile{toc}{\contentsline {subsection}{\numberline {5.2}Saccade Analysis}{29}}
\@writefile{lof}{\contentsline {figure}{\numberline {27}{\ignorespaces Saccade amplitude distribution\relax }}{29}}
\newlabel{fig:msampdist}{{27}{29}}
\@writefile{lof}{\contentsline {figure}{\numberline {28}{\ignorespaces Saccade direction distribution. Dark red is right eye and light red is left eye.\relax }}{30}}
\newlabel{fig:msdirdist}{{28}{30}}
\@writefile{lof}{\contentsline {figure}{\numberline {29}{\ignorespaces Saccade peak velocity distribution\relax }}{31}}
\newlabel{fig:mspkveldist}{{29}{31}}
\@writefile{lof}{\contentsline {figure}{\numberline {30}{\ignorespaces All saccades\relax }}{32}}
\newlabel{fig:mainsequence}{{30}{32}}
\@writefile{lof}{\contentsline {figure}{\numberline {31}{\ignorespaces Saccade amplitude correlation\relax }}{33}}
\newlabel{fig:ampcorr}{{31}{33}}
\@writefile{lof}{\contentsline {figure}{\numberline {32}{\ignorespaces Saccade amplitude correlation (horizontal)\relax }}{34}}
\newlabel{fig:ampxcorr}{{32}{34}}
\@writefile{lof}{\contentsline {figure}{\numberline {33}{\ignorespaces Saccade direction correlation. The cluster of points near the right side appear to be vergence saccades.\relax }}{35}}
\newlabel{fig:dircorr}{{33}{35}}
\@writefile{lof}{\contentsline {figure}{\numberline {34}{\ignorespaces Saccade peak velocity correlation\relax }}{36}}
\newlabel{fig:pkvelcorr}{{34}{36}}
\@writefile{lof}{\contentsline {figure}{\numberline {35}{\ignorespaces Saccade amplitude differences\relax }}{37}}
\newlabel{fig:msampdiffdist}{{35}{37}}
\@writefile{lof}{\contentsline {figure}{\numberline {36}{\ignorespaces Saccade H/V differences\relax }}{38}}
\newlabel{fig:msHVdiff}{{36}{38}}
\@writefile{lof}{\contentsline {figure}{\numberline {37}{\ignorespaces Microsaccade peak velocity difference\relax }}{39}}
\newlabel{fig:mspkveldiffdist}{{37}{39}}
\@writefile{lof}{\contentsline {figure}{\numberline {38}{\ignorespaces Microsaccade version amplitude components\relax }}{40}}
\newlabel{fig:sampxydist}{{38}{40}}
\@writefile{lof}{\contentsline {figure}{\numberline {39}{\ignorespaces microsaccade version amplitude\relax }}{41}}
\newlabel{fig:sampdist}{{39}{41}}
\newlabel{fig:versxcorr}{{40a}{42}}
\newlabel{sub@fig:versxcorr}{{a}{42}}
\newlabel{fig:versycorr}{{40b}{42}}
\newlabel{sub@fig:versycorr}{{b}{42}}
\@writefile{lof}{\contentsline {figure}{\numberline {40}{\ignorespaces Vergence and version correlation on each axis\relax }}{42}}
\newlabel{fig:vergxcorr}{{41a}{43}}
\newlabel{sub@fig:vergxcorr}{{a}{43}}
\newlabel{fig:vergycorr}{{41b}{43}}
\newlabel{sub@fig:vergycorr}{{b}{43}}
\@writefile{lof}{\contentsline {figure}{\numberline {41}{\ignorespaces Vergence correlation\relax }}{43}}
\@writefile{toc}{\contentsline {subsection}{\numberline {5.3}Diffusion Analysis}{44}}
\newlabel{fig:dsqright}{{42a}{44}}
\newlabel{sub@fig:dsqright}{{a}{44}}
\newlabel{fig:dsqleft}{{42b}{44}}
\newlabel{sub@fig:dsqleft}{{b}{44}}
\@writefile{lof}{\contentsline {figure}{\numberline {42}{\ignorespaces R/L Diffusion\relax }}{44}}
\newlabel{fig:dsqvers}{{43a}{45}}
\newlabel{sub@fig:dsqvers}{{a}{45}}
\newlabel{fig:dsqverg}{{43b}{45}}
\newlabel{sub@fig:dsqverg}{{b}{45}}
\@writefile{lof}{\contentsline {figure}{\numberline {43}{\ignorespaces VS Diffusion\relax }}{45}}
\@writefile{lof}{\contentsline {figure}{\numberline {44}{\ignorespaces Diffusion constants\relax }}{46}}
\newlabel{fig:diffconst}{{44}{46}}
\@writefile{toc}{\contentsline {subsection}{\numberline {5.4}Drift Characteristics Correlation with Vergence}{47}}
\@writefile{lof}{\contentsline {figure}{\numberline {45}{\ignorespaces Drift span vs. vergence. The line is a least-squares regression.\relax }}{47}}
\newlabel{fig:driftspancorr}{{45}{47}}
\@writefile{lof}{\contentsline {figure}{\numberline {46}{\ignorespaces Drift speed vs. vergence\relax }}{48}}
\newlabel{fig:driftspeedcorr}{{46}{48}}
\newlabel{fig:driftvarxcorr}{{47a}{49}}
\newlabel{sub@fig:driftvarxcorr}{{a}{49}}
\newlabel{fig:driftvarycorr}{{47b}{49}}
\newlabel{sub@fig:driftvarycorr}{{b}{49}}
\@writefile{lof}{\contentsline {figure}{\numberline {47}{\ignorespaces Drift variance vs. vergence\relax }}{49}}
\@writefile{lof}{\contentsline {figure}{\numberline {48}{\ignorespaces Drift curvature vs. vergence\relax }}{50}}
\newlabel{fig:driftcurvcorr}{{48}{50}}
\@writefile{lof}{\contentsline {figure}{\numberline {49}{\ignorespaces Drift duration vs. vergence\relax }}{51}}
\newlabel{fig:driftdurationcorr}{{49}{51}}
