%!PS-Adobe-3.0 EPSF-3.0
%%Creator: (MATLAB, The Mathworks, Inc. Version 9.6.0.1114505 \(R2019a\) Update 2. Operating System: Windows 10)
%%Title: C:/Users/ryckm_000/Documents/MATLAB/Freeview/FV-analysis/figures/MAC_diffusionconstant.eps
%%CreationDate: 2019-07-30T14:14:32
%%Pages: (atend)
%%BoundingBox:     7    18   381   317
%%LanguageLevel: 3
%%EndComments
%%BeginProlog
%%BeginResource: procset (Apache XML Graphics Std ProcSet) 1.2 0
%%Version: 1.2 0
%%Copyright: (Copyright 2001-2003,2010 The Apache Software Foundation. License terms: http://www.apache.org/licenses/LICENSE-2.0)
/bd{bind def}bind def
/ld{load def}bd
/GR/grestore ld
/GS/gsave ld
/RM/rmoveto ld
/C/curveto ld
/t/show ld
/L/lineto ld
/ML/setmiterlimit ld
/CT/concat ld
/f/fill ld
/N/newpath ld
/S/stroke ld
/CC/setcmykcolor ld
/A/ashow ld
/cp/closepath ld
/RC/setrgbcolor ld
/LJ/setlinejoin ld
/GC/setgray ld
/LW/setlinewidth ld
/M/moveto ld
/re {4 2 roll M
1 index 0 rlineto
0 exch rlineto
neg 0 rlineto
cp } bd
/_ctm matrix def
/_tm matrix def
/BT { _ctm currentmatrix pop matrix _tm copy pop 0 0 moveto } bd
/ET { _ctm setmatrix } bd
/iTm { _ctm setmatrix _tm concat } bd
/Tm { _tm astore pop iTm 0 0 moveto } bd
/ux 0.0 def
/uy 0.0 def
/F {
  /Tp exch def
  /Tf exch def
  Tf findfont Tp scalefont setfont
  /cf Tf def  /cs Tp def
} bd
/ULS {currentpoint /uy exch def /ux exch def} bd
/ULE {
  /Tcx currentpoint pop def
  gsave
  newpath
  cf findfont cs scalefont dup
  /FontMatrix get 0 get /Ts exch def /FontInfo get dup
  /UnderlinePosition get Ts mul /To exch def
  /UnderlineThickness get Ts mul /Tt exch def
  ux uy To add moveto  Tcx uy To add lineto
  Tt setlinewidth stroke
  grestore
} bd
/OLE {
  /Tcx currentpoint pop def
  gsave
  newpath
  cf findfont cs scalefont dup
  /FontMatrix get 0 get /Ts exch def /FontInfo get dup
  /UnderlinePosition get Ts mul /To exch def
  /UnderlineThickness get Ts mul /Tt exch def
  ux uy To add cs add moveto Tcx uy To add cs add lineto
  Tt setlinewidth stroke
  grestore
} bd
/SOE {
  /Tcx currentpoint pop def
  gsave
  newpath
  cf findfont cs scalefont dup
  /FontMatrix get 0 get /Ts exch def /FontInfo get dup
  /UnderlinePosition get Ts mul /To exch def
  /UnderlineThickness get Ts mul /Tt exch def
  ux uy To add cs 10 mul 26 idiv add moveto Tcx uy To add cs 10 mul 26 idiv add lineto
  Tt setlinewidth stroke
  grestore
} bd
/QT {
/Y22 exch store
/X22 exch store
/Y21 exch store
/X21 exch store
currentpoint
/Y21 load 2 mul add 3 div exch
/X21 load 2 mul add 3 div exch
/X21 load 2 mul /X22 load add 3 div
/Y21 load 2 mul /Y22 load add 3 div
/X22 load /Y22 load curveto
} bd
/SSPD {
dup length /d exch dict def
{
/v exch def
/k exch def
currentpagedevice k known {
/cpdv currentpagedevice k get def
v cpdv ne {
/upd false def
/nullv v type /nulltype eq def
/nullcpdv cpdv type /nulltype eq def
nullv nullcpdv or
{
/upd true def
} {
/sametype v type cpdv type eq def
sametype {
v type /arraytype eq {
/vlen v length def
/cpdvlen cpdv length def
vlen cpdvlen eq {
0 1 vlen 1 sub {
/i exch def
/obj v i get def
/cpdobj cpdv i get def
obj cpdobj ne {
/upd true def
exit
} if
} for
} {
/upd true def
} ifelse
} {
v type /dicttype eq {
v {
/dv exch def
/dk exch def
/cpddv cpdv dk get def
dv cpddv ne {
/upd true def
exit
} if
} forall
} {
/upd true def
} ifelse
} ifelse
} if
} ifelse
upd true eq {
d k v put
} if
} if
} if
} forall
d length 0 gt {
d setpagedevice
} if
} bd
/RE { % /NewFontName [NewEncodingArray] /FontName RE -
  findfont dup length dict begin
  {
    1 index /FID ne
    {def} {pop pop} ifelse
  } forall
  /Encoding exch def
  /FontName 1 index def
  currentdict definefont pop
  end
} bind def
%%EndResource
%%BeginResource: procset (Apache XML Graphics EPS ProcSet) 1.0 0
%%Version: 1.0 0
%%Copyright: (Copyright 2002-2003 The Apache Software Foundation. License terms: http://www.apache.org/licenses/LICENSE-2.0)
/BeginEPSF { %def
/b4_Inc_state save def         % Save state for cleanup
/dict_count countdictstack def % Count objects on dict stack
/op_count count 1 sub def      % Count objects on operand stack
userdict begin                 % Push userdict on dict stack
/showpage { } def              % Redefine showpage, { } = null proc
0 setgray 0 setlinecap         % Prepare graphics state
1 setlinewidth 0 setlinejoin
10 setmiterlimit [ ] 0 setdash newpath
/languagelevel where           % If level not equal to 1 then
{pop languagelevel             % set strokeadjust and
1 ne                           % overprint to their defaults.
{false setstrokeadjust false setoverprint
} if
} if
} bd
/EndEPSF { %def
count op_count sub {pop} repeat            % Clean up stacks
countdictstack dict_count sub {end} repeat
b4_Inc_state restore
} bd
%%EndResource
%FOPBeginFontDict
%%IncludeResource: font Courier-Oblique
%%IncludeResource: font Courier-BoldOblique
%%IncludeResource: font Courier-Bold
%%IncludeResource: font ZapfDingbats
%%IncludeResource: font Symbol
%%IncludeResource: font Helvetica
%%IncludeResource: font Helvetica-Oblique
%%IncludeResource: font Helvetica-Bold
%%IncludeResource: font Helvetica-BoldOblique
%%IncludeResource: font Times-Roman
%%IncludeResource: font Times-Italic
%%IncludeResource: font Times-Bold
%%IncludeResource: font Times-BoldItalic
%%IncludeResource: font Courier
%FOPEndFontDict
%%BeginResource: encoding WinAnsiEncoding
/WinAnsiEncoding [
/.notdef /.notdef /.notdef /.notdef /.notdef
/.notdef /.notdef /.notdef /.notdef /.notdef
/.notdef /.notdef /.notdef /.notdef /.notdef
/.notdef /.notdef /.notdef /.notdef /.notdef
/.notdef /.notdef /.notdef /.notdef /.notdef
/.notdef /.notdef /.notdef /.notdef /.notdef
/.notdef /.notdef /space /exclam /quotedbl
/numbersign /dollar /percent /ampersand /quotesingle
/parenleft /parenright /asterisk /plus /comma
/hyphen /period /slash /zero /one
/two /three /four /five /six
/seven /eight /nine /colon /semicolon
/less /equal /greater /question /at
/A /B /C /D /E
/F /G /H /I /J
/K /L /M /N /O
/P /Q /R /S /T
/U /V /W /X /Y
/Z /bracketleft /backslash /bracketright /asciicircum
/underscore /quoteleft /a /b /c
/d /e /f /g /h
/i /j /k /l /m
/n /o /p /q /r
/s /t /u /v /w
/x /y /z /braceleft /bar
/braceright /asciitilde /bullet /Euro /bullet
/quotesinglbase /florin /quotedblbase /ellipsis /dagger
/daggerdbl /circumflex /perthousand /Scaron /guilsinglleft
/OE /bullet /Zcaron /bullet /bullet
/quoteleft /quoteright /quotedblleft /quotedblright /bullet
/endash /emdash /asciitilde /trademark /scaron
/guilsinglright /oe /bullet /zcaron /Ydieresis
/space /exclamdown /cent /sterling /currency
/yen /brokenbar /section /dieresis /copyright
/ordfeminine /guillemotleft /logicalnot /sfthyphen /registered
/macron /degree /plusminus /twosuperior /threesuperior
/acute /mu /paragraph /middot /cedilla
/onesuperior /ordmasculine /guillemotright /onequarter /onehalf
/threequarters /questiondown /Agrave /Aacute /Acircumflex
/Atilde /Adieresis /Aring /AE /Ccedilla
/Egrave /Eacute /Ecircumflex /Edieresis /Igrave
/Iacute /Icircumflex /Idieresis /Eth /Ntilde
/Ograve /Oacute /Ocircumflex /Otilde /Odieresis
/multiply /Oslash /Ugrave /Uacute /Ucircumflex
/Udieresis /Yacute /Thorn /germandbls /agrave
/aacute /acircumflex /atilde /adieresis /aring
/ae /ccedilla /egrave /eacute /ecircumflex
/edieresis /igrave /iacute /icircumflex /idieresis
/eth /ntilde /ograve /oacute /ocircumflex
/otilde /odieresis /divide /oslash /ugrave
/uacute /ucircumflex /udieresis /yacute /thorn
/ydieresis
] def
%%EndResource
%FOPBeginFontReencode
/Courier-Oblique findfont
dup length dict begin
  {1 index /FID ne {def} {pop pop} ifelse} forall
  /Encoding WinAnsiEncoding def
  currentdict
end
/Courier-Oblique exch definefont pop
/Courier-BoldOblique findfont
dup length dict begin
  {1 index /FID ne {def} {pop pop} ifelse} forall
  /Encoding WinAnsiEncoding def
  currentdict
end
/Courier-BoldOblique exch definefont pop
/Courier-Bold findfont
dup length dict begin
  {1 index /FID ne {def} {pop pop} ifelse} forall
  /Encoding WinAnsiEncoding def
  currentdict
end
/Courier-Bold exch definefont pop
/Helvetica findfont
dup length dict begin
  {1 index /FID ne {def} {pop pop} ifelse} forall
  /Encoding WinAnsiEncoding def
  currentdict
end
/Helvetica exch definefont pop
/Helvetica-Oblique findfont
dup length dict begin
  {1 index /FID ne {def} {pop pop} ifelse} forall
  /Encoding WinAnsiEncoding def
  currentdict
end
/Helvetica-Oblique exch definefont pop
/Helvetica-Bold findfont
dup length dict begin
  {1 index /FID ne {def} {pop pop} ifelse} forall
  /Encoding WinAnsiEncoding def
  currentdict
end
/Helvetica-Bold exch definefont pop
/Helvetica-BoldOblique findfont
dup length dict begin
  {1 index /FID ne {def} {pop pop} ifelse} forall
  /Encoding WinAnsiEncoding def
  currentdict
end
/Helvetica-BoldOblique exch definefont pop
/Times-Roman findfont
dup length dict begin
  {1 index /FID ne {def} {pop pop} ifelse} forall
  /Encoding WinAnsiEncoding def
  currentdict
end
/Times-Roman exch definefont pop
/Times-Italic findfont
dup length dict begin
  {1 index /FID ne {def} {pop pop} ifelse} forall
  /Encoding WinAnsiEncoding def
  currentdict
end
/Times-Italic exch definefont pop
/Times-Bold findfont
dup length dict begin
  {1 index /FID ne {def} {pop pop} ifelse} forall
  /Encoding WinAnsiEncoding def
  currentdict
end
/Times-Bold exch definefont pop
/Times-BoldItalic findfont
dup length dict begin
  {1 index /FID ne {def} {pop pop} ifelse} forall
  /Encoding WinAnsiEncoding def
  currentdict
end
/Times-BoldItalic exch definefont pop
/Courier findfont
dup length dict begin
  {1 index /FID ne {def} {pop pop} ifelse} forall
  /Encoding WinAnsiEncoding def
  currentdict
end
/Courier exch definefont pop
%FOPEndFontReencode
%%EndProlog
%%Page: 1 1
%%PageBoundingBox: 0 0 420 315
%%BeginPageSetup
[1 0 0 -1 0 315] CT
%%EndPageSetup
GS
[0.75 0 0 0.75 0 0] CT
1 GC
N
0 0 560 420 re
f
GR
GS
[0.75 0 0 0.75 0 0] CT
1 GC
N
0 0 560 420 re
f
GR
GS
[0.75 0 0 0.75 0 0] CT
1 GC
N
73 374 M
507 374 L
507 31 L
73 31 L
cp
f
GR
GS
[0.75 0 0 0.75 0 0] CT
0.149 GC
2 setlinecap
1 LJ
0.667 LW
N
73 374 M
507 374 L
S
GR
GS
[0.75 0 0 0.75 0 0] CT
0.149 GC
2 setlinecap
1 LJ
0.667 LW
N
290 374 M
290 369.66 L
S
GR
GS
[0.75 0 0 0.75 0 0] CT
0.149 GC
2 setlinecap
1 LJ
0.667 LW
N
116.4 374 M
116.4 371.83 L
S
GR
GS
[0.75 0 0 0.75 0 0] CT
0.149 GC
2 setlinecap
1 LJ
0.667 LW
N
203.2 374 M
203.2 371.83 L
S
GR
GS
[0.75 0 0 0.75 0 0] CT
0.149 GC
2 setlinecap
1 LJ
0.667 LW
N
376.8 374 M
376.8 371.83 L
S
GR
GS
[0.75 0 0 0.75 0 0] CT
0.149 GC
2 setlinecap
1 LJ
0.667 LW
N
463.6 374 M
463.6 371.83 L
S
GR
GS
[0.75 0 0 0.75 217.5 284.7] CT
0.149 GC
/Helvetica 14.667 F
GS
[1 0 0 1 0 0] CT
-27.5 15 moveto 
1 -1 scale
(freeview) t 
GR
GR
GS
[0.75 0 0 0.75 0 0] CT
0.149 GC
2 setlinecap
1 LJ
0.667 LW
N
73 374 M
73 31 L
S
GR
GS
[0.75 0 0 0.75 0 0] CT
0.149 GC
2 setlinecap
1 LJ
0.667 LW
N
73 374 M
77.34 374 L
S
GR
GS
[0.75 0 0 0.75 0 0] CT
0.149 GC
2 setlinecap
1 LJ
0.667 LW
N
73 339.913 M
77.34 339.913 L
S
GR
GS
[0.75 0 0 0.75 0 0] CT
0.149 GC
2 setlinecap
1 LJ
0.667 LW
N
73 305.825 M
77.34 305.825 L
S
GR
GS
[0.75 0 0 0.75 0 0] CT
0.149 GC
2 setlinecap
1 LJ
0.667 LW
N
73 271.738 M
77.34 271.738 L
S
GR
GS
[0.75 0 0 0.75 0 0] CT
0.149 GC
2 setlinecap
1 LJ
0.667 LW
N
73 237.65 M
77.34 237.65 L
S
GR
GS
[0.75 0 0 0.75 0 0] CT
0.149 GC
2 setlinecap
1 LJ
0.667 LW
N
73 203.563 M
77.34 203.563 L
S
GR
GS
[0.75 0 0 0.75 0 0] CT
0.149 GC
2 setlinecap
1 LJ
0.667 LW
N
73 169.476 M
77.34 169.476 L
S
GR
GS
[0.75 0 0 0.75 0 0] CT
0.149 GC
2 setlinecap
1 LJ
0.667 LW
N
73 135.388 M
77.34 135.388 L
S
GR
GS
[0.75 0 0 0.75 0 0] CT
0.149 GC
2 setlinecap
1 LJ
0.667 LW
N
73 101.301 M
77.34 101.301 L
S
GR
GS
[0.75 0 0 0.75 0 0] CT
0.149 GC
2 setlinecap
1 LJ
0.667 LW
N
73 67.213 M
77.34 67.213 L
S
GR
GS
[0.75 0 0 0.75 0 0] CT
0.149 GC
2 setlinecap
1 LJ
0.667 LW
N
73 33.126 M
77.34 33.126 L
S
GR
GS
[0.75 0 0 0.75 0 0] CT
0.149 GC
2 setlinecap
1 LJ
0.667 LW
N
73 365.478 M
75.17 365.478 L
S
GR
GS
[0.75 0 0 0.75 0 0] CT
0.149 GC
2 setlinecap
1 LJ
0.667 LW
N
73 356.956 M
75.17 356.956 L
S
GR
GS
[0.75 0 0 0.75 0 0] CT
0.149 GC
2 setlinecap
1 LJ
0.667 LW
N
73 348.434 M
75.17 348.434 L
S
GR
GS
[0.75 0 0 0.75 0 0] CT
0.149 GC
2 setlinecap
1 LJ
0.667 LW
N
73 331.391 M
75.17 331.391 L
S
GR
GS
[0.75 0 0 0.75 0 0] CT
0.149 GC
2 setlinecap
1 LJ
0.667 LW
N
73 322.869 M
75.17 322.869 L
S
GR
GS
[0.75 0 0 0.75 0 0] CT
0.149 GC
2 setlinecap
1 LJ
0.667 LW
N
73 314.347 M
75.17 314.347 L
S
GR
GS
[0.75 0 0 0.75 0 0] CT
0.149 GC
2 setlinecap
1 LJ
0.667 LW
N
73 297.303 M
75.17 297.303 L
S
GR
GS
[0.75 0 0 0.75 0 0] CT
0.149 GC
2 setlinecap
1 LJ
0.667 LW
N
73 288.781 M
75.17 288.781 L
S
GR
GS
[0.75 0 0 0.75 0 0] CT
0.149 GC
2 setlinecap
1 LJ
0.667 LW
N
73 280.26 M
75.17 280.26 L
S
GR
GS
[0.75 0 0 0.75 0 0] CT
0.149 GC
2 setlinecap
1 LJ
0.667 LW
N
73 263.216 M
75.17 263.216 L
S
GR
GS
[0.75 0 0 0.75 0 0] CT
0.149 GC
2 setlinecap
1 LJ
0.667 LW
N
73 254.694 M
75.17 254.694 L
S
GR
GS
[0.75 0 0 0.75 0 0] CT
0.149 GC
2 setlinecap
1 LJ
0.667 LW
N
73 246.172 M
75.17 246.172 L
S
GR
GS
[0.75 0 0 0.75 0 0] CT
0.149 GC
2 setlinecap
1 LJ
0.667 LW
N
73 229.128 M
75.17 229.128 L
S
GR
GS
[0.75 0 0 0.75 0 0] CT
0.149 GC
2 setlinecap
1 LJ
0.667 LW
N
73 220.607 M
75.17 220.607 L
S
GR
GS
[0.75 0 0 0.75 0 0] CT
0.149 GC
2 setlinecap
1 LJ
0.667 LW
N
73 212.085 M
75.17 212.085 L
S
GR
GS
[0.75 0 0 0.75 0 0] CT
0.149 GC
2 setlinecap
1 LJ
0.667 LW
N
73 195.041 M
75.17 195.041 L
S
GR
GS
[0.75 0 0 0.75 0 0] CT
0.149 GC
2 setlinecap
1 LJ
0.667 LW
N
73 186.519 M
75.17 186.519 L
S
GR
GS
[0.75 0 0 0.75 0 0] CT
0.149 GC
2 setlinecap
1 LJ
0.667 LW
N
73 177.997 M
75.17 177.997 L
S
GR
GS
[0.75 0 0 0.75 0 0] CT
0.149 GC
2 setlinecap
1 LJ
0.667 LW
N
73 160.954 M
75.17 160.954 L
S
GR
GS
[0.75 0 0 0.75 0 0] CT
0.149 GC
2 setlinecap
1 LJ
0.667 LW
N
73 152.432 M
75.17 152.432 L
S
GR
GS
[0.75 0 0 0.75 0 0] CT
0.149 GC
2 setlinecap
1 LJ
0.667 LW
N
73 143.91 M
75.17 143.91 L
S
GR
GS
[0.75 0 0 0.75 0 0] CT
0.149 GC
2 setlinecap
1 LJ
0.667 LW
N
73 126.866 M
75.17 126.866 L
S
GR
GS
[0.75 0 0 0.75 0 0] CT
0.149 GC
2 setlinecap
1 LJ
0.667 LW
N
73 118.344 M
75.17 118.344 L
S
GR
GS
[0.75 0 0 0.75 0 0] CT
0.149 GC
2 setlinecap
1 LJ
0.667 LW
N
73 109.823 M
75.17 109.823 L
S
GR
GS
[0.75 0 0 0.75 0 0] CT
0.149 GC
2 setlinecap
1 LJ
0.667 LW
N
73 92.779 M
75.17 92.779 L
S
GR
GS
[0.75 0 0 0.75 0 0] CT
0.149 GC
2 setlinecap
1 LJ
0.667 LW
N
73 84.257 M
75.17 84.257 L
S
GR
GS
[0.75 0 0 0.75 0 0] CT
0.149 GC
2 setlinecap
1 LJ
0.667 LW
N
73 75.735 M
75.17 75.735 L
S
GR
GS
[0.75 0 0 0.75 0 0] CT
0.149 GC
2 setlinecap
1 LJ
0.667 LW
N
73 58.691 M
75.17 58.691 L
S
GR
GS
[0.75 0 0 0.75 0 0] CT
0.149 GC
2 setlinecap
1 LJ
0.667 LW
N
73 50.17 M
75.17 50.17 L
S
GR
GS
[0.75 0 0 0.75 0 0] CT
0.149 GC
2 setlinecap
1 LJ
0.667 LW
N
73 41.648 M
75.17 41.648 L
S
GR
GS
[0.75 0 0 0.75 50.55001 280.5] CT
0.149 GC
/Helvetica 14.667 F
GS
[1 0 0 1 0 0] CT
-9 5.5 moveto 
1 -1 scale
(0) t 
GR
GR
GS
[0.75 0 0 0.75 50.55001 254.93445] CT
0.149 GC
/Helvetica 14.667 F
GS
[1 0 0 1 0 0] CT
-9 5.5 moveto 
1 -1 scale
(2) t 
GR
GR
GS
[0.75 0 0 0.75 50.55001 229.36887] CT
0.149 GC
/Helvetica 14.667 F
GS
[1 0 0 1 0 0] CT
-9 5.5 moveto 
1 -1 scale
(4) t 
GR
GR
GS
[0.75 0 0 0.75 50.55001 203.80332] CT
0.149 GC
/Helvetica 14.667 F
GS
[1 0 0 1 0 0] CT
-9 5.5 moveto 
1 -1 scale
(6) t 
GR
GR
GS
[0.75 0 0 0.75 50.55001 178.23776] CT
0.149 GC
/Helvetica 14.667 F
GS
[1 0 0 1 0 0] CT
-9 5.5 moveto 
1 -1 scale
(8) t 
GR
GR
GS
[0.75 0 0 0.75 50.55001 152.6722] CT
0.149 GC
/Helvetica 14.667 F
GS
[1 0 0 1 0 0] CT
-17 5.5 moveto 
1 -1 scale
(10) t 
GR
GR
GS
[0.75 0 0 0.75 50.55001 127.10663] CT
0.149 GC
/Helvetica 14.667 F
GS
[1 0 0 1 0 0] CT
-17 5.5 moveto 
1 -1 scale
(12) t 
GR
GR
GS
[0.75 0 0 0.75 50.55001 101.54107] CT
0.149 GC
/Helvetica 14.667 F
GS
[1 0 0 1 0 0] CT
-17 5.5 moveto 
1 -1 scale
(14) t 
GR
GR
GS
[0.75 0 0 0.75 50.55001 75.97551] CT
0.149 GC
/Helvetica 14.667 F
GS
[1 0 0 1 0 0] CT
-17 5.5 moveto 
1 -1 scale
(16) t 
GR
GR
GS
[0.75 0 0 0.75 50.55001 50.40995] CT
0.149 GC
/Helvetica 14.667 F
GS
[1 0 0 1 0 0] CT
-17 5.5 moveto 
1 -1 scale
(18) t 
GR
GR
GS
[0.75 0 0 0.75 50.55001 24.84439] CT
0.149 GC
/Helvetica 14.667 F
GS
[1 0 0 1 0 0] CT
-17 5.5 moveto 
1 -1 scale
(20) t 
GR
GR
GS
[0 -0.75 0.75 0 30 281.25] CT
0.149 GC
/Helvetica 26.667 F
GS
[1 0 0 1 0 0] CT
0 0 moveto 
1 -1 scale
(diffusion constant \(arcmin) t 
GR
GR
GS
[0 -0.75 0.75 0 20.25 53.25] CT
0.149 GC
/Helvetica 21.333 F
GS
[1 0 0 1 0 0] CT
0 0 moveto 
1 -1 scale
(2) t 
GR
GR
GS
[0 -0.75 0.75 0 30 44.25] CT
0.149 GC
/Helvetica 26.667 F
GS
[1 0 0 1 0 0] CT
0 0 moveto 
1 -1 scale
(/s\)) t 
GR
GR
GS
[0.75 0 0 0.75 0 0] CT
0.502 GC
1 LJ
2.667 LW
N
290 66.305 M
290 101.611 L
S
GR
GS
[0.75 0 0 0.75 0 0] CT
0.502 GC
1 LJ
2.667 LW
N
290 66.305 M
290 31 L
S
GR
GS
[0.75 0 0 0.75 217.5 49.72896] CT
0.502 GC
10.0 ML
2.667 LW
N
-5 -5 M
-5 5 L
5 5 L
5 -5 L
cp
S
GR
GS
[0.75 0 0 0.75 217.5 76.20792] CT
0.502 GC
N
-10 0 M
10 0 L
f
GR
GS
[0.75 0 0 0.75 217.5 76.20792] CT
0.502 GC
10.0 ML
2.667 LW
N
-10 0 M
10 0 L
S
GR
GS
[0.75 0 0 0.75 217.5 23.25] CT
0.502 GC
N
/f1699942908{-10 0 M
10 0 L}def
f1699942908
f
GR
GS
[0.75 0 0 0.75 217.5 23.25] CT
0.502 GC
10.0 ML
2.667 LW
N
-10 0 M
10 0 L
S
GR
GS
[0.75 0 0 0.75 0 0] CT
0.502 GC
1 LJ
2.667 LW
N
290 88.759 M
290 121.004 L
S
GR
GS
[0.75 0 0 0.75 0 0] CT
0.502 GC
1 LJ
2.667 LW
N
290 88.759 M
290 56.513 L
S
GR
GS
[0.75 0 0 0.75 217.5 66.56902] CT
0.502 GC
10.0 ML
2.667 LW
N
0 -8.887 M
-7.696 4.443 L
7.696 4.443 L
cp
S
GR
GS
[0.75 0 0 0.75 217.5 90.75294] CT
0.502 GC
N
f1699942908
f
GR
GS
[0.75 0 0 0.75 217.5 90.75294] CT
0.502 GC
10.0 ML
2.667 LW
N
-10 0 M
10 0 L
S
GR
GS
[0.75 0 0 0.75 217.5 42.38509] CT
0.502 GC
N
f1699942908
f
GR
GS
[0.75 0 0 0.75 217.5 42.38509] CT
0.502 GC
10.0 ML
2.667 LW
N
-10 0 M
10 0 L
S
GR
GS
[0.75 0 0 0.75 0 0] CT
1 LJ
2.667 LW
N
290 334.133 M
290 337.244 L
S
GR
GS
[0.75 0 0 0.75 0 0] CT
1 LJ
2.667 LW
N
290 334.133 M
290 331.022 L
S
GR
GS
[0.75 0 0 0.75 217.5 250.59982] CT
10.0 ML
2.667 LW
N
6.667 0 M
6.667 -3.682 3.682 -6.667 0 -6.667 C
-3.682 -6.667 -6.667 -3.682 -6.667 0 C
-6.667 3.682 -3.682 6.667 0 6.667 C
3.682 6.667 6.667 3.682 6.667 0 C
cp
S
GR
GS
[0.75 0 0 0.75 217.5 252.93279] CT
N
f1699942908
f
GR
GS
[0.75 0 0 0.75 217.5 252.93279] CT
10.0 ML
2.667 LW
N
-10 0 M
10 0 L
S
GR
GS
[0.75 0 0 0.75 217.5 248.26685] CT
N
f1699942908
f
GR
GS
[0.75 0 0 0.75 217.5 248.26685] CT
10.0 ML
2.667 LW
N
-10 0 M
10 0 L
S
GR
GS
[0.75 0 0 0.75 0 0] CT
1 0 0 RC
1 LJ
2.667 LW
N
290 339.25 M
290 345.542 L
S
GR
GS
[0.75 0 0 0.75 0 0] CT
1 0 0 RC
1 LJ
2.667 LW
N
290 339.25 M
290 332.958 L
S
GR
GS
[0.75 0 0 0.75 217.5 254.43757] CT
1 0 0 RC
10.0 ML
2.667 LW
N
6.667 0 M
6.667 -3.682 3.682 -6.667 0 -6.667 C
-3.682 -6.667 -6.667 -3.682 -6.667 0 C
-6.667 3.682 -3.682 6.667 0 6.667 C
3.682 6.667 6.667 3.682 6.667 0 C
cp
S
GR
GS
[0.75 0 0 0.75 217.5 259.15633] CT
1 0 0 RC
N
f1699942908
f
GR
GS
[0.75 0 0 0.75 217.5 259.15633] CT
1 0 0 RC
10.0 ML
2.667 LW
N
-10 0 M
10 0 L
S
GR
GS
[0.75 0 0 0.75 217.5 249.7188] CT
1 0 0 RC
N
f1699942908
f
GR
GS
[0.75 0 0 0.75 217.5 249.7188] CT
1 0 0 RC
10.0 ML
2.667 LW
N
-10 0 M
10 0 L
S
GR
GS
[0.75 0 0 0.75 0 0] CT
1 GC
N
/f1090645668{496 155 M
496 42 L
357 42 L
357 155 L
cp}def
f1090645668
f
GR
GS
[0.75 0 0 0.75 303 43.07379] CT
/Helvetica 21.333 F
GS
[1 0 0 1 0 0] CT
0 8.5 moveto 
1 -1 scale
(left) t 
GR
GR
GS
[0.75 0 0 0.75 0 0] CT
0.502 GC
1 LJ
2.667 LW
N
361 57.432 M
401 57.432 L
S
GR
GS
[0.75 0 0 0.75 285.75 50.63409] CT
0.502 GC
N
/f-401390582{-4 0 M
4 0 L}def
f-401390582
f
GR
GS
[0.75 0 0 0.75 285.75 50.63409] CT
0.502 GC
10.0 ML
2.667 LW
N
-4 0 M
4 0 L
S
GR
GS
[0.75 0 0 0.75 285.75 35.51349] CT
0.502 GC
N
f-401390582
f
GR
GS
[0.75 0 0 0.75 285.75 35.51349] CT
0.502 GC
10.0 ML
2.667 LW
N
-4 0 M
4 0 L
S
GR
GS
[0.75 0 0 0.75 0 0] CT
0.502 GC
1 LJ
2.667 LW
N
381 67.512 M
381 47.351 L
S
GR
GS
[0.75 0 0 0.75 285.75 43.07379] CT
0.502 GC
10.0 ML
2.667 LW
N
-3 -3 M
-3 3 L
3 3 L
3 -3 L
cp
S
GR
GS
[0.75 0 0 0.75 303 63.60793] CT
/Helvetica 21.333 F
GS
[1 0 0 1 0 0] CT
0 8.5 moveto 
1 -1 scale
(right) t 
GR
GR
GS
[0.75 0 0 0.75 0 0] CT
0.502 GC
1 LJ
2.667 LW
N
361 84.811 M
401 84.811 L
S
GR
GS
[0.75 0 0 0.75 285.75 71.16823] CT
0.502 GC
N
f-401390582
f
GR
GS
[0.75 0 0 0.75 285.75 71.16823] CT
0.502 GC
10.0 ML
2.667 LW
N
-4 0 M
4 0 L
S
GR
GS
[0.75 0 0 0.75 285.75 56.04763] CT
0.502 GC
N
f-401390582
f
GR
GS
[0.75 0 0 0.75 285.75 56.04763] CT
0.502 GC
10.0 ML
2.667 LW
N
-4 0 M
4 0 L
S
GR
GS
[0.75 0 0 0.75 0 0] CT
0.502 GC
1 LJ
2.667 LW
N
381 94.891 M
381 74.73 L
S
GR
GS
[0.75 0 0 0.75 285.75 63.60793] CT
0.502 GC
10.0 ML
2.667 LW
N
0 -5.332 M
-4.618 2.666 L
4.618 2.666 L
cp
S
GR
GS
[0.75 0 0 0.75 303 84.14207] CT
/Helvetica 21.333 F
GS
[1 0 0 1 0 0] CT
0 8.5 moveto 
1 -1 scale
(version) t 
GR
GR
GS
[0.75 0 0 0.75 0 0] CT
1 LJ
2.667 LW
N
361 112.189 M
401 112.189 L
S
GR
GS
[0.75 0 0 0.75 285.75 91.70237] CT
N
f-401390582
f
GR
GS
[0.75 0 0 0.75 285.75 91.70237] CT
10.0 ML
2.667 LW
N
-4 0 M
4 0 L
S
GR
GS
[0.75 0 0 0.75 285.75 76.58177] CT
N
f-401390582
f
GR
GS
[0.75 0 0 0.75 285.75 76.58177] CT
10.0 ML
2.667 LW
N
-4 0 M
4 0 L
S
GR
GS
[0.75 0 0 0.75 0 0] CT
1 LJ
2.667 LW
N
381 122.27 M
381 102.109 L
S
GR
GS
[0.75 0 0 0.75 285.75 84.14207] CT
10.0 ML
2.667 LW
N
4 0 M
4 -2.209 2.209 -4 0 -4 C
-2.209 -4 -4 -2.209 -4 0 C
-4 2.209 -2.209 4 0 4 C
2.209 4 4 2.209 4 0 C
cp
S
GR
GS
[0.75 0 0 0.75 303 104.67621] CT
/Helvetica 21.333 F
GS
[1 0 0 1 0 0] CT
0 8.5 moveto 
1 -1 scale
(vergence) t 
GR
GR
GS
[0.75 0 0 0.75 0 0] CT
1 0 0 RC
1 LJ
2.667 LW
N
361 139.568 M
401 139.568 L
S
GR
GS
[0.75 0 0 0.75 285.75 112.23651] CT
1 0 0 RC
N
f-401390582
f
GR
GS
[0.75 0 0 0.75 285.75 112.23651] CT
1 0 0 RC
10.0 ML
2.667 LW
N
-4 0 M
4 0 L
S
GR
GS
[0.75 0 0 0.75 285.75 97.11591] CT
1 0 0 RC
N
f-401390582
f
GR
GS
[0.75 0 0 0.75 285.75 97.11591] CT
1 0 0 RC
10.0 ML
2.667 LW
N
-4 0 M
4 0 L
S
GR
GS
[0.75 0 0 0.75 0 0] CT
1 0 0 RC
1 LJ
2.667 LW
N
381 149.649 M
381 129.488 L
S
GR
GS
[0.75 0 0 0.75 285.75 104.67621] CT
1 0 0 RC
10.0 ML
2.667 LW
N
4 0 M
4 -2.209 2.209 -4 0 -4 C
-2.209 -4 -4 -2.209 -4 0 C
-4 2.209 -2.209 4 0 4 C
2.209 4 4 2.209 4 0 C
cp
S
GR
GS
[0.75 0 0 0.75 0 0] CT
0.149 GC
10.0 ML
0.667 LW
N
357 155 M
357 42 L
496 42 L
496 155 L
cp
S
GR
GS
[0.75 0 0 0.75 0 0] CT
10.0 ML
2.667 LW
N
11.2 41 M
11.2 0 L
106.7 0 L
106.7 41 L
cp
S
GR
GS
[0.75 0 0 0.75 13.4 3] CT
/Helvetica-Bold 26.667 F
GS
[1 0 0 1 0 0] CT
0 25 moveto 
1 -1 scale
(MAC) t 
GR
GR
%%Trailer
%%Pages: 1
%%EOF
